{"animals":[{"id":48549331,"organization_id":"NC232","url":"https:\/\/www.petfinder.com\/dog\/riley-jade-48549331\/nc\/raleigh\/second-chance-pet-adoptions-adoption-center-nc232\/?referrer_id=5957d654-0b8d-4a02-bbae-6c7dd49e1074","type":"Dog","species":"Dog","breeds":{"primary":"Jack Russell Terrier","secondary":"Chihuahua","mixed":true,"unknown":false},"colors":{"primary":null,"secondary":null,"tertiary":null},"age":"Baby","gender":"Female","size":"Medium","coat":null,"attributes":{"spayed_neutered":true,"house_trained":true,"declawed":null,"special_needs":false,"shots_current":true},"environment":{"children":null,"dogs":null,"cats":null},"tags":[],"name":"Riley Jade","description":"***All animals listed on our website are in private foster homes. To arrange a meet and greet with a dog,...","organization_animal_id":"D20-052","photos":[],"primary_photo_cropped":null,"videos":[],"status":"adoptable","status_changed_at":"2020-07-21T10:05:39+0000","published_at":"2020-07-21T10:05:39+0000","distance":null,"contact":{"email":"secondchance@secondchancenc.org","phone":null,"address":{"address1":"6003 Chapel Hill Road Ste. 133","address2":null,"city":"Raleigh","state":"NC","postcode":"27512","country":"US"}},"_links":{"self":{"href":"\/v2\/animals\/48549331"},"type":{"href":"\/v2\/types\/dog"},"organization":{"href":"\/v2\/organizations\/nc232"}}},{"id":48549332,"organization_id":"NC232","url":"https:\/\/www.petfinder.com\/dog\/simone-48549332\/nc\/raleigh\/second-chance-pet-adoptions-adoption-center-nc232\/?referrer_id=5957d654-0b8d-4a02-bbae-6c7dd49e1074","type":"Dog","species":"Dog","breeds":{"primary":"Terrier","secondary":null,"mixed":true,"unknown":false},"colors":{"primary":null,"secondary":null,"tertiary":null},"age":"Young","gender":"Female","size":"Medium","coat":null,"attributes":{"spayed_neutered":false,"house_trained":true,"declawed":null,"special_needs":false,"shots_current":true},"environment":{"children":null,"dogs":null,"cats":null},"tags":[],"name":"Simone","description":"***All animals listed on our website are in private foster homes. To arrange a meet and greet with a dog,...","organization_animal_id":"D20-118","photos":[],"primary_photo_cropped":null,"videos":[],"status":"adoptable","status_changed_at":"2020-07-21T10:05:39+0000","published_at":"2020-07-21T10:05:39+0000","distance":null,"contact":{"email":"secondchance@secondchancenc.org","phone":null,"address":{"address1":"6003 Chapel Hill Road Ste. 133","address2":null,"city":"Raleigh","state":"NC","postcode":"27512","country":"US"}},"_links":{"self":{"href":"\/v2\/animals\/48549332"},"type":{"href":"\/v2\/types\/dog"},"organization":{"href":"\/v2\/organizations\/nc232"}}},{"id":48549333,"organization_id":"NC232","url":"https:\/\/www.petfinder.com\/dog\/ruby-jane-48549333\/nc\/raleigh\/second-chance-pet-adoptions-adoption-center-nc232\/?referrer_id=5957d654-0b8d-4a02-bbae-6c7dd49e1074","type":"Dog","species":"Dog","breeds":{"primary":"Jack Russell Terrier","secondary":"Chihuahua","mixed":true,"unknown":false},"colors":{"primary":null,"secondary":null,"tertiary":null},"age":"Baby","gender":"Female","size":"Medium","coat":null,"attributes":{"spayed_neutered":true,"house_trained":false,"declawed":null,"special_needs":false,"shots_current":true},"environment":{"children":null,"dogs":null,"cats":null},"tags":[],"name":"Ruby Jane","description":"***All animals listed on our website are in private foster homes. To arrange a meet and greet with a dog,...","organization_animal_id":"D20-051","photos":[],"primary_photo_cropped":null,"videos":[],"status":"adoptable","status_changed_at":"2020-07-21T10:05:39+0000","published_at":"2020-07-21T10:05:39+0000","distance":null,"contact":{"email":"secondchance@secondchancenc.org","phone":null,"address":{"address1":"6003 Chapel Hill Road Ste. 133","address2":null,"city":"Raleigh","state":"NC","postcode":"27512","country":"US"}},"_links":{"self":{"href":"\/v2\/animals\/48549333"},"type":{"href":"\/v2\/types\/dog"},"organization":{"href":"\/v2\/organizations\/nc232"}}},{"id":48549327,"organization_id":"CA162","url":"https:\/\/www.petfinder.com\/dog\/snap-48549327\/ca\/vacaville\/solano-county-s-dot-pc-dot-a-ca162\/?referrer_id=5957d654-0b8d-4a02-bbae-6c7dd49e1074","type":"Dog","species":"Dog","breeds":{"primary":"Chihuahua","secondary":"Mixed Breed","mixed":true,"unknown":false},"colors":{"primary":null,"secondary":null,"tertiary":null},"age":"Young","gender":"Female","size":"Small","coat":null,"attributes":{"spayed_neutered":true,"house_trained":false,"declawed":null,"special_needs":false,"shots_current":false},"environment":{"children":null,"dogs":null,"cats":null},"tags":[],"name":"Snap","description":"Oh Snap! Snap is a young girl looking for a place to call home. She enjoys a quiet place to...","organization_animal_id":"T2020299","photos":[],"primary_photo_cropped":null,"videos":[],"status":"adoptable","status_changed_at":"2020-07-21T10:04:35+0000","published_at":"2020-07-21T10:04:35+0000","distance":null,"contact":{"email":"solanospca@gmail.com","phone":"(707) 448-7722","address":{"address1":"2200 Peabody Rd","address2":"PO Box 356","city":"Vacaville","state":"CA","postcode":"95696","country":"US"}},"_links":{"self":{"href":"\/v2\/animals\/48549327"},"type":{"href":"\/v2\/types\/dog"},"organization":{"href":"\/v2\/organizations\/ca162"}}},{"id":48549326,"organization_id":"AR07","url":"https:\/\/www.petfinder.com\/dog\/red-48549326\/ar\/hot-springs-village\/hot-springs-village-animal-welfare-league-ar07\/?referrer_id=5957d654-0b8d-4a02-bbae-6c7dd49e1074","type":"Dog","species":"Dog","breeds":{"primary":"Labrador Retriever","secondary":"Hound","mixed":true,"unknown":false},"colors":{"primary":null,"secondary":null,"tertiary":null},"age":"Adult","gender":"Male","size":"Large","coat":null,"attributes":{"spayed_neutered":true,"house_trained":false,"declawed":null,"special_needs":false,"shots_current":true},"environment":{"children":null,"dogs":null,"cats":null},"tags":[],"name":"Red","description":"Handsome fellow, Red, managed to get lost from his home. Someone must be missing this nice boy but we have...","organization_animal_id":"203092","photos":[],"primary_photo_cropped":null,"videos":[],"status":"adoptable","status_changed_at":"2020-07-21T10:04:33+0000","published_at":"2020-07-21T10:04:33+0000","distance":null,"contact":{"email":"adoptions@hsvawl.org","phone":null,"address":{"address1":"195 Cloaca Lane","address2":null,"city":"Hot Springs Village","state":"AR","postcode":"71909","country":"US"}},"_links":{"self":{"href":"\/v2\/animals\/48549326"},"type":{"href":"\/v2\/types\/dog"},"organization":{"href":"\/v2\/organizations\/ar07"}}},{"id":48549322,"organization_id":"FL96","url":"https:\/\/www.petfinder.com\/dog\/sammy-48549322\/fl\/fort-myers\/gulf-coast-humane-society-fl96\/?referrer_id=5957d654-0b8d-4a02-bbae-6c7dd49e1074","type":"Dog","species":"Dog","breeds":{"primary":"Shepherd","secondary":"Black Mouth Cur","mixed":true,"unknown":false},"colors":{"primary":null,"secondary":null,"tertiary":null},"age":"Adult","gender":"Male","size":"Medium","coat":null,"attributes":{"spayed_neutered":true,"house_trained":false,"declawed":null,"special_needs":false,"shots_current":true},"environment":{"children":null,"dogs":null,"cats":null},"tags":[],"name":"Sammy","description":null,"organization_animal_id":"D2020832","photos":[],"primary_photo_cropped":null,"videos":[],"status":"adoptable","status_changed_at":"2020-07-21T10:04:18+0000","published_at":"2020-07-21T10:04:18+0000","distance":null,"contact":{"email":"adoptions@gulfcoasthumanesociety.org","phone":"(239) 332-0364","address":{"address1":"2010 Arcadia Street","address2":null,"city":"Fort Myers","state":"FL","postcode":"33916","country":"US"}},"_links":{"self":{"href":"\/v2\/animals\/48549322"},"type":{"href":"\/v2\/types\/dog"},"organization":{"href":"\/v2\/organizations\/fl96"}}},{"id":48549323,"organization_id":"FL96","url":"https:\/\/www.petfinder.com\/dog\/becca-48549323\/fl\/fort-myers\/gulf-coast-humane-society-fl96\/?referrer_id=5957d654-0b8d-4a02-bbae-6c7dd49e1074","type":"Dog","species":"Dog","breeds":{"primary":"Shih Tzu","secondary":"Mixed Breed","mixed":true,"unknown":false},"colors":{"primary":null,"secondary":null,"tertiary":null},"age":"Adult","gender":"Female","size":"Small","coat":null,"attributes":{"spayed_neutered":true,"house_trained":false,"declawed":null,"special_needs":false,"shots_current":true},"environment":{"children":null,"dogs":null,"cats":null},"tags":[],"name":"Becca","description":null,"organization_animal_id":"D2020515","photos":[],"primary_photo_cropped":null,"videos":[],"status":"adoptable","status_changed_at":"2020-07-21T10:04:18+0000","published_at":"2020-07-21T10:04:18+0000","distance":null,"contact":{"email":"adoptions@gulfcoasthumanesociety.org","phone":"(239) 332-0364","address":{"address1":"2010 Arcadia Street","address2":null,"city":"Fort Myers","state":"FL","postcode":"33916","country":"US"}},"_links":{"self":{"href":"\/v2\/animals\/48549323"},"type":{"href":"\/v2\/types\/dog"},"organization":{"href":"\/v2\/organizations\/fl96"}}},{"id":48549325,"organization_id":"FL96","url":"https:\/\/www.petfinder.com\/dog\/reese-48549325\/fl\/fort-myers\/gulf-coast-humane-society-fl96\/?referrer_id=5957d654-0b8d-4a02-bbae-6c7dd49e1074","type":"Dog","species":"Dog","breeds":{"primary":"Dachshund","secondary":"Mixed Breed","mixed":true,"unknown":false},"colors":{"primary":null,"secondary":null,"tertiary":null},"age":"Adult","gender":"Female","size":"Small","coat":null,"attributes":{"spayed_neutered":true,"house_trained":false,"declawed":null,"special_needs":false,"shots_current":true},"environment":{"children":null,"dogs":null,"cats":null},"tags":[],"name":"Reese","description":null,"organization_animal_id":"D2020838","photos":[],"primary_photo_cropped":null,"videos":[],"status":"adoptable","status_changed_at":"2020-07-21T10:04:18+0000","published_at":"2020-07-21T10:04:18+0000","distance":null,"contact":{"email":"adoptions@gulfcoasthumanesociety.org","phone":"(239) 332-0364","address":{"address1":"2010 Arcadia Street","address2":null,"city":"Fort Myers","state":"FL","postcode":"33916","country":"US"}},"_links":{"self":{"href":"\/v2\/animals\/48549325"},"type":{"href":"\/v2\/types\/dog"},"organization":{"href":"\/v2\/organizations\/fl96"}}},{"id":48549318,"organization_id":"FL96","url":"https:\/\/www.petfinder.com\/dog\/amber-48549318\/fl\/fort-myers\/gulf-coast-humane-society-fl96\/?referrer_id=5957d654-0b8d-4a02-bbae-6c7dd49e1074","type":"Dog","species":"Dog","breeds":{"primary":"Terrier","secondary":"Mixed Breed","mixed":true,"unknown":false},"colors":{"primary":null,"secondary":null,"tertiary":null},"age":"Adult","gender":"Female","size":"Medium","coat":null,"attributes":{"spayed_neutered":true,"house_trained":false,"declawed":null,"special_needs":false,"shots_current":true},"environment":{"children":null,"dogs":null,"cats":null},"tags":[],"name":"Amber","description":null,"organization_animal_id":"D2020364","photos":[],"primary_photo_cropped":null,"videos":[],"status":"adoptable","status_changed_at":"2020-07-21T10:04:17+0000","published_at":"2020-07-21T10:04:17+0000","distance":null,"contact":{"email":"adoptions@gulfcoasthumanesociety.org","phone":"(239) 332-0364","address":{"address1":"2010 Arcadia Street","address2":null,"city":"Fort Myers","state":"FL","postcode":"33916","country":"US"}},"_links":{"self":{"href":"\/v2\/animals\/48549318"},"type":{"href":"\/v2\/types\/dog"},"organization":{"href":"\/v2\/organizations\/fl96"}}},{"id":48549314,"organization_id":"TN270","url":"https:\/\/www.petfinder.com\/dog\/sassy-ms-48549314\/tn\/columbia\/russell-rescue-inc-tn270\/?referrer_id=5957d654-0b8d-4a02-bbae-6c7dd49e1074","type":"Dog","species":"Dog","breeds":{"primary":"Chihuahua","secondary":null,"mixed":false,"unknown":false},"colors":{"primary":null,"secondary":null,"tertiary":null},"age":"Young","gender":"Female","size":"Small","coat":null,"attributes":{"spayed_neutered":true,"house_trained":true,"declawed":null,"special_needs":false,"shots_current":true},"environment":{"children":null,"dogs":true,"cats":true},"tags":[],"name":"Sassy\/MS","description":"Meet Sassy\/MS! This fabulous little chihuahua is 2 yrs old \u0026amp;amp; is very timid at first. Needs time to warm...","organization_animal_id":"15860948","photos":[],"primary_photo_cropped":null,"videos":[],"status":"adoptable","status_changed_at":"2020-07-21T10:03:56+0000","published_at":"2020-07-21T10:03:56+0000","distance":null,"contact":{"email":"russellrescuetn@gmail.com","phone":null,"address":{"address1":null,"address2":null,"city":"Columbia","state":"TN","postcode":"38401","country":"US"}},"_links":{"self":{"href":"\/v2\/animals\/48549314"},"type":{"href":"\/v2\/types\/dog"},"organization":{"href":"\/v2\/organizations\/tn270"}}},{"id":48549315,"organization_id":"TN270","url":"https:\/\/www.petfinder.com\/dog\/dashia-ms-48549315\/tn\/columbia\/russell-rescue-inc-tn270\/?referrer_id=5957d654-0b8d-4a02-bbae-6c7dd49e1074","type":"Dog","species":"Dog","breeds":{"primary":"Chihuahua","secondary":null,"mixed":true,"unknown":false},"colors":{"primary":null,"secondary":null,"tertiary":null},"age":"Baby","gender":"Female","size":"Small","coat":null,"attributes":{"spayed_neutered":true,"house_trained":false,"declawed":null,"special_needs":false,"shots_current":true},"environment":{"children":true,"dogs":true,"cats":true},"tags":[],"name":"Dashia\/MS","description":"Meet Dashia\/MS!! This precious girl was an owner surrender due to no fault of her own. Very dainty chi mix....","organization_animal_id":"15860945","photos":[],"primary_photo_cropped":null,"videos":[],"status":"adoptable","status_changed_at":"2020-07-21T10:03:56+0000","published_at":"2020-07-21T10:03:56+0000","distance":null,"contact":{"email":"russellrescuetn@gmail.com","phone":null,"address":{"address1":null,"address2":null,"city":"Columbia","state":"TN","postcode":"38401","country":"US"}},"_links":{"self":{"href":"\/v2\/animals\/48549315"},"type":{"href":"\/v2\/types\/dog"},"organization":{"href":"\/v2\/organizations\/tn270"}}},{"id":48549316,"organization_id":"TN270","url":"https:\/\/www.petfinder.com\/dog\/misty-ms-48549316\/tn\/columbia\/russell-rescue-inc-tn270\/?referrer_id=5957d654-0b8d-4a02-bbae-6c7dd49e1074","type":"Dog","species":"Dog","breeds":{"primary":"Chihuahua","secondary":null,"mixed":true,"unknown":false},"colors":{"primary":null,"secondary":null,"tertiary":null},"age":"Baby","gender":"Female","size":"Small","coat":null,"attributes":{"spayed_neutered":true,"house_trained":false,"declawed":null,"special_needs":false,"shots_current":true},"environment":{"children":false,"dogs":true,"cats":true},"tags":[],"name":"Misty\/MS","description":"Meet Misty\/MS!! This beautiful girl is a chi mix owner surrender due to family moving in with grandparents and they...","organization_animal_id":"15860946","photos":[],"primary_photo_cropped":null,"videos":[],"status":"adoptable","status_changed_at":"2020-07-21T10:03:56+0000","published_at":"2020-07-21T10:03:56+0000","distance":null,"contact":{"email":"russellrescuetn@gmail.com","phone":null,"address":{"address1":null,"address2":null,"city":"Columbia","state":"TN","postcode":"38401","country":"US"}},"_links":{"self":{"href":"\/v2\/animals\/48549316"},"type":{"href":"\/v2\/types\/dog"},"organization":{"href":"\/v2\/organizations\/tn270"}}},{"id":48549317,"organization_id":"TN270","url":"https:\/\/www.petfinder.com\/dog\/macy-ms-48549317\/tn\/columbia\/russell-rescue-inc-tn270\/?referrer_id=5957d654-0b8d-4a02-bbae-6c7dd49e1074","type":"Dog","species":"Dog","breeds":{"primary":"Maltese","secondary":"Chihuahua","mixed":true,"unknown":false},"colors":{"primary":null,"secondary":null,"tertiary":null},"age":"Baby","gender":"Female","size":"Small","coat":null,"attributes":{"spayed_neutered":true,"house_trained":false,"declawed":null,"special_needs":false,"shots_current":true},"environment":{"children":null,"dogs":true,"cats":true},"tags":[],"name":"Macy\/MS","description":"Meet Macy\/MS! This adorable girl is a Maltese chi mix. Bottle fed ! She is now approx 14-16 weeks old....","organization_animal_id":"15860947","photos":[],"primary_photo_cropped":null,"videos":[],"status":"adoptable","status_changed_at":"2020-07-21T10:03:56+0000","published_at":"2020-07-21T10:03:56+0000","distance":null,"contact":{"email":"russellrescuetn@gmail.com","phone":null,"address":{"address1":null,"address2":null,"city":"Columbia","state":"TN","postcode":"38401","country":"US"}},"_links":{"self":{"href":"\/v2\/animals\/48549317"},"type":{"href":"\/v2\/types\/dog"},"organization":{"href":"\/v2\/organizations\/tn270"}}},{"id":48549312,"organization_id":"MT87","url":"https:\/\/www.petfinder.com\/dog\/willie-48549312\/mt\/dodson\/rezq-dogs-mt87\/?referrer_id=5957d654-0b8d-4a02-bbae-6c7dd49e1074","type":"Dog","species":"Dog","breeds":{"primary":"German Shepherd Dog","secondary":null,"mixed":true,"unknown":false},"colors":{"primary":null,"secondary":null,"tertiary":null},"age":"Baby","gender":"Male","size":"Large","coat":null,"attributes":{"spayed_neutered":true,"house_trained":false,"declawed":null,"special_needs":false,"shots_current":true},"environment":{"children":null,"dogs":true,"cats":true},"tags":[],"name":"Willie","description":"Willie is an adorable German Shepherd mix puppy born in January, 2020. This handsome boy is a total social butterfly...","organization_animal_id":"15860941","photos":[],"primary_photo_cropped":null,"videos":[],"status":"adoptable","status_changed_at":"2020-07-21T10:03:51+0000","published_at":"2020-07-21T10:03:51+0000","distance":null,"contact":{"email":"adoptions.rezqdogs@gmail.com","phone":null,"address":{"address1":"PO Box 8","address2":null,"city":"Dodson","state":"MT","postcode":"59524","country":"US"}},"_links":{"self":{"href":"\/v2\/animals\/48549312"},"type":{"href":"\/v2\/types\/dog"},"organization":{"href":"\/v2\/organizations\/mt87"}}},{"id":48549313,"organization_id":"MT87","url":"https:\/\/www.petfinder.com\/dog\/webo-48549313\/mt\/dodson\/rezq-dogs-mt87\/?referrer_id=5957d654-0b8d-4a02-bbae-6c7dd49e1074","type":"Dog","species":"Dog","breeds":{"primary":"Bull Terrier","secondary":"Terrier","mixed":true,"unknown":false},"colors":{"primary":null,"secondary":null,"tertiary":null},"age":"Young","gender":"Female","size":"Medium","coat":null,"attributes":{"spayed_neutered":false,"house_trained":false,"declawed":null,"special_needs":false,"shots_current":false},"environment":{"children":null,"dogs":null,"cats":null},"tags":[],"name":"Webo","description":null,"organization_animal_id":"15860938","photos":[],"primary_photo_cropped":null,"videos":[],"status":"adoptable","status_changed_at":"2020-07-21T10:03:51+0000","published_at":"2020-07-21T10:03:51+0000","distance":null,"contact":{"email":"adoptions.rezqdogs@gmail.com","phone":null,"address":{"address1":"PO Box 8","address2":null,"city":"Dodson","state":"MT","postcode":"59524","country":"US"}},"_links":{"self":{"href":"\/v2\/animals\/48549313"},"type":{"href":"\/v2\/types\/dog"},"organization":{"href":"\/v2\/organizations\/mt87"}}},{"id":48549306,"organization_id":"FL819","url":"https:\/\/www.petfinder.com\/dog\/tony-48549306\/fl\/st-augustine\/s-dot-af-dot-e-pet-rescue-of-northeast-florida-fl819\/?referrer_id=5957d654-0b8d-4a02-bbae-6c7dd49e1074","type":"Dog","species":"Dog","breeds":{"primary":"Hound","secondary":null,"mixed":false,"unknown":false},"colors":{"primary":null,"secondary":null,"tertiary":null},"age":"Adult","gender":"Male","size":"Medium","coat":null,"attributes":{"spayed_neutered":false,"house_trained":false,"declawed":null,"special_needs":false,"shots_current":true},"environment":{"children":null,"dogs":null,"cats":null},"tags":[],"name":"Tony","description":"Interested in adopting this pet? Call 904-325-0196 or email rnordan_se1@comcast.net","organization_animal_id":"A12229","photos":[],"primary_photo_cropped":null,"videos":[],"status":"adoptable","status_changed_at":"2020-07-21T10:03:50+0000","published_at":"2020-07-21T10:03:50+0000","distance":null,"contact":{"email":"Rnordan_se1@comcast.net","phone":"904-325-0196 ","address":{"address1":"P.O. Box 840215","address2":"6101 A1A S","city":"St. Augustine","state":"FL","postcode":"32084","country":"US"}},"_links":{"self":{"href":"\/v2\/animals\/48549306"},"type":{"href":"\/v2\/types\/dog"},"organization":{"href":"\/v2\/organizations\/fl819"}}},{"id":48549307,"organization_id":"FL819","url":"https:\/\/www.petfinder.com\/dog\/chip-48549307\/fl\/st-augustine\/s-dot-af-dot-e-pet-rescue-of-northeast-florida-fl819\/?referrer_id=5957d654-0b8d-4a02-bbae-6c7dd49e1074","type":"Dog","species":"Dog","breeds":{"primary":"Dachshund","secondary":null,"mixed":false,"unknown":false},"colors":{"primary":null,"secondary":null,"tertiary":null},"age":"Adult","gender":"Male","size":"Small","coat":null,"attributes":{"spayed_neutered":false,"house_trained":false,"declawed":null,"special_needs":false,"shots_current":true},"environment":{"children":null,"dogs":null,"cats":null},"tags":[],"name":"Chip","description":"Interested in adopting this pet? Call 904-325-0196 or email rnordan_se1@comcast.net","organization_animal_id":"A12231","photos":[],"primary_photo_cropped":null,"videos":[],"status":"adoptable","status_changed_at":"2020-07-21T10:03:50+0000","published_at":"2020-07-21T10:03:50+0000","distance":null,"contact":{"email":"Rnordan_se1@comcast.net","phone":"904-325-0196 ","address":{"address1":"P.O. Box 840215","address2":"6101 A1A S","city":"St. Augustine","state":"FL","postcode":"32084","country":"US"}},"_links":{"self":{"href":"\/v2\/animals\/48549307"},"type":{"href":"\/v2\/types\/dog"},"organization":{"href":"\/v2\/organizations\/fl819"}}},{"id":48549309,"organization_id":"FL819","url":"https:\/\/www.petfinder.com\/dog\/dale-48549309\/fl\/st-augustine\/s-dot-af-dot-e-pet-rescue-of-northeast-florida-fl819\/?referrer_id=5957d654-0b8d-4a02-bbae-6c7dd49e1074","type":"Dog","species":"Dog","breeds":{"primary":"Dachshund","secondary":null,"mixed":false,"unknown":false},"colors":{"primary":null,"secondary":null,"tertiary":null},"age":"Adult","gender":"Male","size":"Small","coat":null,"attributes":{"spayed_neutered":false,"house_trained":false,"declawed":null,"special_needs":false,"shots_current":true},"environment":{"children":null,"dogs":null,"cats":null},"tags":[],"name":"Dale","description":"Interested in adopting this pet? Call 904-325-0196 or email rnordan_se1@comcast.net","organization_animal_id":"A12232","photos":[],"primary_photo_cropped":null,"videos":[],"status":"adoptable","status_changed_at":"2020-07-21T10:03:50+0000","published_at":"2020-07-21T10:03:50+0000","distance":null,"contact":{"email":"Rnordan_se1@comcast.net","phone":"904-325-0196 ","address":{"address1":"P.O. Box 840215","address2":"6101 A1A S","city":"St. Augustine","state":"FL","postcode":"32084","country":"US"}},"_links":{"self":{"href":"\/v2\/animals\/48549309"},"type":{"href":"\/v2\/types\/dog"},"organization":{"href":"\/v2\/organizations\/fl819"}}},{"id":48549310,"organization_id":"FL819","url":"https:\/\/www.petfinder.com\/dog\/teddy-48549310\/fl\/st-augustine\/s-dot-af-dot-e-pet-rescue-of-northeast-florida-fl819\/?referrer_id=5957d654-0b8d-4a02-bbae-6c7dd49e1074","type":"Dog","species":"Dog","breeds":{"primary":"Australian Shepherd","secondary":null,"mixed":true,"unknown":false},"colors":{"primary":null,"secondary":null,"tertiary":null},"age":"Adult","gender":"Male","size":"Large","coat":null,"attributes":{"spayed_neutered":true,"house_trained":false,"declawed":null,"special_needs":false,"shots_current":true},"environment":{"children":null,"dogs":null,"cats":null},"tags":[],"name":"Teddy","description":"Interested in adopting this pet? Call 904-325-0196 or email rnordan_se1@comcast.net","organization_animal_id":"A12167","photos":[],"primary_photo_cropped":null,"videos":[],"status":"adoptable","status_changed_at":"2020-07-21T10:03:50+0000","published_at":"2020-07-21T10:03:50+0000","distance":null,"contact":{"email":"Rnordan_se1@comcast.net","phone":"904-325-0196 ","address":{"address1":"P.O. Box 840215","address2":"6101 A1A S","city":"St. Augustine","state":"FL","postcode":"32084","country":"US"}},"_links":{"self":{"href":"\/v2\/animals\/48549310"},"type":{"href":"\/v2\/types\/dog"},"organization":{"href":"\/v2\/organizations\/fl819"}}},{"id":48549311,"organization_id":"FL819","url":"https:\/\/www.petfinder.com\/dog\/babygirl-48549311\/fl\/st-augustine\/s-dot-af-dot-e-pet-rescue-of-northeast-florida-fl819\/?referrer_id=5957d654-0b8d-4a02-bbae-6c7dd49e1074","type":"Dog","species":"Dog","breeds":{"primary":"Rottweiler","secondary":null,"mixed":false,"unknown":false},"colors":{"primary":null,"secondary":null,"tertiary":null},"age":"Young","gender":"Female","size":"Large","coat":null,"attributes":{"spayed_neutered":false,"house_trained":false,"declawed":null,"special_needs":false,"shots_current":true},"environment":{"children":null,"dogs":null,"cats":null},"tags":[],"name":"Babygirl","description":"Interested in adopting this pet? Call 904-325-0196 or email rnordan_se1@comcast.net","organization_animal_id":"A12117","photos":[],"primary_photo_cropped":null,"videos":[],"status":"adoptable","status_changed_at":"2020-07-21T10:03:50+0000","published_at":"2020-07-21T10:03:50+0000","distance":null,"contact":{"email":"Rnordan_se1@comcast.net","phone":"904-325-0196 ","address":{"address1":"P.O. Box 840215","address2":"6101 A1A S","city":"St. Augustine","state":"FL","postcode":"32084","country":"US"}},"_links":{"self":{"href":"\/v2\/animals\/48549311"},"type":{"href":"\/v2\/types\/dog"},"organization":{"href":"\/v2\/organizations\/fl819"}}}],"pagination":{"count_per_page":20,"total_count":59056,"current_page":1,"total_pages":2953,"_links":{"next":{"href":"\/v2\/animals?type=dog\u0026page=2"}}}}